{"success":true,"message":"Bookings retrieved successfully","data":{"bookings":[{"booking_id":"cf58e50b-ea03-40ae-8a29-e51c9d9bd7e7","user_id":"9fe1e1df-d458-47d8-b6d8-7a7d655c20e4","vehicle_id":"9473587e-bbe8-45fd-b9e4-82865bc2cfb4","location_id":"73699c53-254d-4488-bb48-b11da02243d8","booking_date":"2025-07-30T07:00:00.000Z","return_date":"2025-07-31T07:00:00.000Z","total_amount":"847.34","booking_status":"pending","created_at":"2025-07-30T02:50:37.789Z","updated_at":"2025-07-30T02:50:37.789Z","user_name":"John Mwangi","user_email":"john.mwangi@email.com","user_phone":"+254720111111","vehicle_name":"Aston Martin DB11 Volante","vehicle_license_plate":"NV-2115-VR","vehicle_availability":true,"rental_rate":"847.34","location_name":"Miami Beach Luxury Fleet","location_address":"321 Ocean Drive, Miami Beach, FL 33139, USA","location_phone":"+1-305-555-0003","payment_status":null,"payment_amount":null,"payment_method":null},{"booking_id":"51e56622-a86e-4332-aa31-1f13df197505","user_id":"9fe1e1df-d458-47d8-b6d8-7a7d655c20e4","vehicle_id":"14ef0260-63e3-4646-b216-d3c03963ef87","location_id":"ac81ffc1-9d65-4818-b15f-2659d3eb0295","booking_date":"2025-07-31T05:11:00.000Z","return_date":"2025-08-05T23:04:00.000Z","total_amount":"21180.00","booking_status":"pending","created_at":"2025-07-30T01:04:56.179Z","updated_at":"2025-07-30T01:04:56.179Z","user_name":"John Mwangi","user_email":"john.mwangi@email.com","user_phone":"+254720111111","vehicle_name":"Toyota Corolla","vehicle_license_plate":"KAA 732E","vehicle_availability":true,"rental_rate":"3530.00","location_name":"Nakuru Rift Valley Branch","location_address":"Kenyatta Avenue, Nakuru Town, Nakuru County","location_phone":"+254713456789","payment_status":null,"payment_amount":null,"payment_method":null},{"booking_id":"9f2e8efd-c852-4f06-a9f4-a4a99abc2a5f","user_id":"9fe1e1df-d458-47d8-b6d8-7a7d655c20e4","vehicle_id":"b285e49a-c4db-45c7-ace7-5ec99bb96e07","location_id":"73699c53-254d-4488-bb48-b11da02243d8","booking_date":"2025-07-30T07:00:00.000Z","return_date":"2025-07-31T07:00:00.000Z","total_amount":"355.46","booking_status":"pending","created_at":"2025-07-30T00:59:35.613Z","updated_at":"2025-07-30T00:59:35.613Z","user_name":"John Mwangi","user_email":"john.mwangi@email.com","user_phone":"+254720111111","vehicle_name":"Mercedes-Benz Sprinter 3500 Executive","vehicle_license_plate":"NV-2136-VR","vehicle_availability":true,"rental_rate":"355.46","location_name":"Miami Beach Luxury Fleet","location_address":"321 Ocean Drive, Miami Beach, FL 33139, USA","location_phone":"+1-305-555-0003","payment_status":null,"payment_amount":null,"payment_method":null},{"booking_id":"b856c6e8-735c-42f6-a160-ad919ddf04c3","user_id":"9fe1e1df-d458-47d8-b6d8-7a7d655c20e4","vehicle_id":"f0e5f9aa-d081-4863-9a9e-ad1b3c2cdf77","location_id":"18ce907b-a698-4ba5-88ec-d443e6c37395","booking_date":"2025-08-07T07:02:00.000Z","return_date":"2025-08-07T14:04:00.000Z","total_amount":"400.10","booking_status":"pending","created_at":"2025-07-29T21:21:35.346Z","updated_at":"2025-07-29T21:21:35.346Z","user_name":"John Mwangi","user_email":"john.mwangi@email.com","user_phone":"+254720111111","vehicle_name":"Mercedes-Benz Sprinter 3500 Executive","vehicle_license_plate":"NV-1736-VR","vehicle_availability":true,"rental_rate":"400.10","location_name":"Beverly Hills Premium Location","location_address":"789 Rodeo Drive, Beverly Hills, CA 90210, USA","location_phone":"+1-310-555-0002","payment_status":null,"payment_amount":null,"payment_method":null},{"booking_id":"0f97393e-823f-4940-86d1-ce2d7efbc3d9","user_id":"9fe1e1df-d458-47d8-b6d8-7a7d655c20e4","vehicle_id":"480d4188-8b9b-4b97-99f1-796d01d55085","location_id":"1ad9e47e-fb94-4d0a-8d7b-35468c348ebb","booking_date":"2025-08-08T07:00:00.000Z","return_date":"2025-08-09T07:00:00.000Z","total_amount":"378.85","booking_status":"pending","created_at":"2025-07-29T21:08:15.690Z","updated_at":"2025-07-29T21:08:15.690Z","user_name":"John Mwangi","user_email":"john.mwangi@email.com","user_phone":"+254720111111","vehicle_name":"Mercedes-Benz S-Class S580","vehicle_license_plate":"NV-2200-VR","vehicle_availability":true,"rental_rate":"378.85","location_name":"Chicago Downtown Hub","location_address":"654 Michigan Avenue, Chicago, IL 60611, USA","location_phone":"+1-312-555-0004","payment_status":null,"payment_amount":null,"payment_method":null},{"booking_id":"722c77f9-bef9-40ab-b85c-0865380a563f","user_id":"9fe1e1df-d458-47d8-b6d8-7a7d655c20e4","vehicle_id":"480d4188-8b9b-4b97-99f1-796d01d55085","location_id":"1ad9e47e-fb94-4d0a-8d7b-35468c348ebb","booking_date":"2025-07-31T07:00:00.000Z","return_date":"2025-08-01T07:00:00.000Z","total_amount":"378.85","booking_status":"pending","created_at":"2025-07-29T21:07:50.064Z","updated_at":"2025-07-29T21:07:50.064Z","user_name":"John Mwangi","user_email":"john.mwangi@email.com","user_phone":"+254720111111","vehicle_name":"Mercedes-Benz S-Class S580","vehicle_license_plate":"NV-2200-VR","vehicle_availability":true,"rental_rate":"378.85","location_name":"Chicago Downtown Hub","location_address":"654 Michigan Avenue, Chicago, IL 60611, USA","location_phone":"+1-312-555-0004","payment_status":null,"payment_amount":null,"payment_method":null},{"booking_id":"a265230b-d1c7-4388-8536-91bf637cbeb1","user_id":"9fe1e1df-d458-47d8-b6d8-7a7d655c20e4","vehicle_id":"2930c5c8-5d1c-4917-b1b4-53294580b15c","location_id":"45a27756-ad98-4e64-be50-efe3a58718dc","booking_date":"2025-07-30T21:57:00.000Z","return_date":"2025-08-05T17:53:00.000Z","total_amount":"44790.00","booking_status":"pending","created_at":"2025-07-29T19:53:29.612Z","updated_at":"2025-07-29T19:53:29.612Z","user_name":"John Mwangi","user_email":"john.mwangi@email.com","user_phone":"+254720111111","vehicle_name":"Honda Pilot","vehicle_license_plate":"KAA 860C","vehicle_availability":true,"rental_rate":"7465.00","location_name":"Kisumu Lakeside Branch","location_address":"Oginga Odinga Street, Kisumu Central, Kisumu County","location_phone":"+254712345678","payment_status":null,"payment_amount":null,"payment_method":null},{"booking_id":"036ea3d2-d017-4572-b64c-1e6202da4ee0","user_id":"9fe1e1df-d458-47d8-b6d8-7a7d655c20e4","vehicle_id":"248579de-e53e-49a9-9473-bdbed3b4d7b8","location_id":"cb14be46-ccb3-448a-912f-c68f85609ef1","booking_date":"2025-07-30T17:57:00.000Z","return_date":"2025-08-05T17:52:00.000Z","total_amount":"26184.00","booking_status":"pending","created_at":"2025-07-29T19:52:47.414Z","updated_at":"2025-07-29T19:52:47.414Z","user_name":"John Mwangi","user_email":"john.mwangi@email.com","user_phone":"+254720111111","vehicle_name":"Mazda Mazda3","vehicle_license_plate":"KAA 821P","vehicle_availability":true,"rental_rate":"4364.00","location_name":"Mombasa Coastal Branch","location_address":"Moi Avenue, Mombasa Island, Mombasa County","location_phone":"+254711234567","payment_status":null,"payment_amount":null,"payment_method":null},{"booking_id":"1b21b8a7-3a93-458e-b891-2fb7a40214a2","user_id":"08a78d9f-b0de-4959-b71f-b893e2cbad67","vehicle_id":"8fd4df7a-187d-440e-b34d-02051a8ea9c9","location_id":"6b64fe75-8c41-4ec7-ae3a-54c48918f3f8","booking_date":"2025-07-25T15:40:00.000Z","return_date":"2025-07-27T09:23:00.000Z","total_amount":"12638.00","booking_status":"pending","created_at":"2025-07-25T14:25:36.138Z","updated_at":"2025-07-25T14:25:36.138Z","user_name":"Sally Achieng","user_email":"sally.achieng@email.com","user_phone":"+254725666666","vehicle_name":"Toyota Hilux","vehicle_license_plate":"KAA 689N","vehicle_availability":true,"rental_rate":"6319.00","location_name":"Mombasa Coastal Branch","location_address":"Moi Avenue, Mombasa Island, Mombasa County","location_phone":"+254711234567","payment_status":null,"payment_amount":null,"payment_method":null},{"booking_id":"cfff942c-760f-43fe-a6ef-06cf1bf035c1","user_id":"08a78d9f-b0de-4959-b71f-b893e2cbad67","vehicle_id":"a22667ae-6a61-4dc5-b080-85980684b5cb","location_id":"01d3406d-03ca-47c9-b3cf-4b79fe790201","booking_date":"2025-07-25T15:21:00.000Z","return_date":"2025-08-01T09:16:00.000Z","total_amount":"25886.00","booking_status":"pending","created_at":"2025-07-25T14:17:09.554Z","updated_at":"2025-07-25T14:17:09.554Z","user_name":"Sally Achieng","user_email":"sally.achieng@email.com","user_phone":"+254725666666","vehicle_name":"Toyota Land Cruiser Prado","vehicle_license_plate":"KAA 803X","vehicle_availability":true,"rental_rate":"3698.00","location_name":"Nairobi Central Branch","location_address":"Kimathi Street, Nairobi CBD, Nairobi County","location_phone":"+254710123456","payment_status":"pending","payment_amount":"25886.00","payment_method":"mpesa"}],"total":20,"page":1,"limit":10,"totalPages":2},"timestamp":"2025-07-30T03:38:36.546Z"}